<?xml version="1.0" encoding="UTF-8" standalone="no"?>
<!-- Created with Inkscape (http://www.inkscape.org/) -->

<svg
   xmlns:dc="http://purl.org/dc/elements/1.1/"
   xmlns:cc="http://creativecommons.org/ns#"
   xmlns:rdf="http://www.w3.org/1999/02/22-rdf-syntax-ns#"
   xmlns:svg="http://www.w3.org/2000/svg"
   xmlns="http://www.w3.org/2000/svg"
   xmlns:xlink="http://www.w3.org/1999/xlink"
   xmlns:sodipodi="http://sodipodi.sourceforge.net/DTD/sodipodi-0.dtd"
   xmlns:inkscape="http://www.inkscape.org/namespaces/inkscape"
   width="500"
   height="500"
   viewBox="0 0 132.29166 132.29167"
   version="1.1"
   id="svg8"
   inkscape:version="0.92.1 r15371"
   sodipodi:docname="mask.svg"
   inkscape:export-filename="/home/rodrigo/dev/festaria/artes/mask-face.png"
   inkscape:export-xdpi="192"
   inkscape:export-ydpi="192">
  <defs
     id="defs2" />
  <sodipodi:namedview
     id="base"
     pagecolor="#000000"
     bordercolor="#666666"
     borderopacity="1.0"
     inkscape:pageopacity="1"
     inkscape:pageshadow="2"
     inkscape:zoom="0.49497475"
     inkscape:cx="-157.64562"
     inkscape:cy="137.80222"
     inkscape:document-units="px"
     inkscape:current-layer="layer1"
     showgrid="false"
     units="px"
     inkscape:snap-center="true"
     showguides="false"
     inkscape:window-width="1360"
     inkscape:window-height="691"
     inkscape:window-x="0"
     inkscape:window-y="0"
     inkscape:window-maximized="1" />
  <metadata
     id="metadata5">
    <rdf:RDF>
      <cc:Work
         rdf:about="">
        <dc:format>image/svg+xml</dc:format>
        <dc:type
           rdf:resource="http://purl.org/dc/dcmitype/StillImage" />
        <dc:title></dc:title>
      </cc:Work>
    </rdf:RDF>
  </metadata>
  <g
     inkscape:label="Camada 1"
     inkscape:groupmode="layer"
     id="layer1"
     transform="translate(0,-164.70831)">
    <image
       sodipodi:absref="/home/rodrigo/dev/festaria/artes/mask.png"
       xlink:href="mask.png"
       width="114.8278"
       height="95.402626"
       preserveAspectRatio="none"
       style="image-rendering:optimizeQuality"
       id="image120"
       x="8.8689451"
       y="175.26501" />
    <text
       xml:space="preserve"
       style="font-style:normal;font-weight:normal;font-size:8.18291187px;line-height:1.25;font-family:sans-serif;letter-spacing:0px;word-spacing:0px;fill:#ffffff;fill-opacity:1;stroke:none;stroke-width:0.20457281"
       x="64.463676"
       y="179.28368"
       id="text125"><tspan
         sodipodi:role="line"
         x="64.463676"
         y="179.28368"
         style="font-style:normal;font-variant:normal;font-weight:normal;font-stretch:normal;font-family:'Rajdhani Light';-inkscape-font-specification:'Rajdhani Light, ';text-align:center;text-anchor:middle;fill:#ffffff;stroke-width:0.20457281"
         id="tspan127">Sua Casa - Sua Marca - Seu App</tspan></text>
    <rect
       style="fill:#3f0e76;fill-opacity:1;stroke:none;stroke-width:0.09019269;stroke-miterlimit:4;stroke-dasharray:none;stroke-dashoffset:0;stroke-opacity:0.64846413;paint-order:stroke markers fill"
       id="rect4599"
       width="108.35583"
       height="19.087811"
       x="12.04506"
       y="264.48013"
       ry="0.61434507" />
    <path
       style="fill:#ffffff;stroke-width:0.0645138"
       d="m 27.673486,280.92179 c -0.02366,-0.0237 -0.04301,-0.14168 -0.04301,-0.26229 0,-0.12061 -0.03246,-0.2827 -0.07215,-0.36021 -0.03967,-0.0775 0.07644,0.004 0.258057,0.17924 0.181608,0.17608 0.330197,0.35751 0.330197,0.4032 0,0.0866 -0.39322,0.11995 -0.473101,0.04 z m -10.413604,-0.12874 c -0.105987,-0.0427 -0.107726,-0.79192 -0.0025,-1.03485 0.137426,-0.31698 0.769679,-1.43656 0.833554,-1.47603 0.06484,-0.04 0.249461,0.0833 0.249461,0.16669 0,0.0268 -0.232249,0.34259 -0.51611,0.70166 -0.283861,0.35907 -0.51611,0.71304 -0.51611,0.78661 0,0.0735 0.07555,0.26267 0.167881,0.42022 0.22489,0.38375 0.129793,0.57534 -0.216267,0.4357 z m 2.459396,-1.16691 c 0.02254,-0.13306 0.05905,-0.33871 0.08112,-0.45701 0.03561,-0.19083 0.0091,-0.24668 -0.234773,-0.4952 -0.279193,-0.28447 -0.307417,-0.44333 -0.09336,-0.52547 0.170172,-0.0652 0.529642,0.3391 0.601686,0.67689 0.05623,0.26362 0.04354,0.33043 -0.126773,0.66782 -0.104084,0.20619 -0.207169,0.37489 -0.229071,0.37489 -0.0219,0 -0.02137,-0.1089 0.0012,-0.24192 z m 8.221325,-0.12277 c -0.180075,-0.19979 -0.492231,-0.92466 -0.629742,-1.46236 -0.134313,-0.52519 -0.269531,-1.62393 -0.216773,-1.76142 0.01671,-0.0435 0.13824,-0.0974 0.270064,-0.11967 0.195034,-0.0329 0.341299,0.007 0.78524,0.21159 0.300058,0.13865 0.690023,0.30781 0.866586,0.3759 0.575953,0.22213 0.774072,0.73797 0.447755,1.16579 -0.26105,0.34225 -0.787644,0.72911 -0.992471,0.72911 -0.250243,0 -0.338676,0.1363 -0.383116,0.59048 -0.03657,0.37379 -0.04334,0.38619 -0.147543,0.27058 z m 0.980148,-0.20415 c 0,-0.0337 0.07984,-0.11323 0.177413,-0.17661 0.09757,-0.0634 0.373374,-0.3037 0.61288,-0.53412 0.242015,-0.23283 0.43547,-0.37617 0.43547,-0.32265 0,0.18646 -0.404153,0.70356 -0.668259,0.855 -0.325653,0.18673 -0.557504,0.26091 -0.557504,0.17838 z m -2.408059,-1.22075 c -0.14083,-0.32305 -0.42708,-1.33513 -0.4746,-1.67802 -0.03316,-0.23929 -0.02252,-0.27406 0.08367,-0.2732 0.244036,0.002 0.289987,0.0994 0.351027,0.74463 0.03312,0.35 0.09123,0.80746 0.129146,1.01656 0.03792,0.2091 0.05715,0.39197 0.04272,0.4064 -0.01442,0.0145 -0.07381,-0.083 -0.131967,-0.21637 z m -7.916749,-0.37439 c -0.120477,-0.12823 -0.131345,-0.17162 -0.06349,-0.25338 0.108706,-0.13099 0.216259,-0.12449 0.347952,0.021 0.226709,0.2505 -0.05288,0.47887 -0.28447,0.23235 z m 0.594471,-0.82394 c -0.07715,-0.0821 -0.140273,-0.18442 -0.140273,-0.22733 0,-0.043 0.28484,-0.50555 0.632979,-1.02807 0.348137,-0.52252 0.757257,-1.18228 0.909154,-1.46614 0.4053,-0.75742 1.452406,-2.00329 2.006292,-2.38713 l 0.262829,-0.18213 0.271713,0.19059 c 0.236526,0.16592 0.55945,0.52455 1.579788,1.75449 0.212905,0.25665 0.237871,0.33167 0.311302,0.93545 0.04391,0.36104 0.05669,0.68046 0.02842,0.70983 -0.02828,0.0294 -0.396085,-0.0259 -0.817346,-0.12289 -1.008404,-0.23207 -2.215905,-0.2867 -2.770892,-0.12536 -0.446657,0.12984 -0.633561,0.3091 -1.438369,1.37952 -0.297114,0.39517 -0.575107,0.71849 -0.617764,0.71849 -0.04265,0 -0.140681,-0.0672 -0.21783,-0.14932 z m 10.942302,-0.0168 c -0.132453,-0.24587 -0.565325,-0.64333 -0.769366,-0.70642 -0.444034,-0.13731 -0.829682,-0.30543 -0.829682,-0.36168 0,-0.0812 0.462065,-0.63667 0.529622,-0.63667 0.02789,0 0.188669,0.0993 0.357294,0.22067 0.448364,0.32272 0.901371,1.14959 0.841615,1.53621 -0.02136,0.13825 -0.02847,0.13539 -0.129483,-0.0521 z M 18.146947,276.6258 c 0,-0.0605 0.04718,-0.22776 0.104855,-0.37189 0.113071,-0.2826 0.102403,-0.49085 -0.06443,-1.25662 -0.288409,-1.32385 -0.300782,-2.54955 -0.0324,-3.20957 0.09908,-0.24364 0.199947,-0.22327 0.479244,0.0968 0.505384,0.57913 0.861348,1.66614 0.784506,2.39567 -0.02714,0.25767 -0.151019,0.53515 -0.564966,1.26548 -0.643575,1.13548 -0.70681,1.23211 -0.70681,1.08015 z m -1.965837,-0.69009 c -0.02092,-0.0339 -0.01976,-0.13437 0.0026,-0.22337 0.07434,-0.29621 -0.102473,-1.2819 -0.365514,-2.03758 -0.493795,-1.4186 -0.535427,-1.6985 -0.32239,-2.1676 0.202474,-0.44583 0.646362,-0.67109 1.322132,-0.67091 0.474494,1.7e-4 0.850477,0.15989 0.834797,0.35472 -0.0057,0.071 -0.05616,0.25178 -0.112091,0.4018 -0.173395,0.46502 -0.251148,1.16868 -0.21003,1.90079 l 0.03874,0.68973 -0.233665,0.02 c -0.31356,0.0267 -0.39162,0.1625 -0.282875,0.492 0.120654,0.36559 0.04499,0.65657 -0.261202,1.00441 -0.266199,0.30243 -0.342394,0.34625 -0.410473,0.23609 z m 9.679844,-0.55594 c -0.09332,-0.0933 -0.151609,-0.6728 -0.06768,-0.6728 0.01854,0 0.16369,0.11982 0.322569,0.26628 0.358755,0.33069 0.38237,0.50789 0.06768,0.50789 -0.121656,0 -0.266812,-0.0456 -0.32257,-0.10143 z m 1.484694,-0.24326 -0.252572,-0.21368 0.06572,-0.94792 c 0.03615,-0.52136 0.08786,-0.9691 0.114916,-0.99499 0.02707,-0.0259 0.102671,0.0254 0.168015,0.11416 0.06534,0.0887 0.342226,0.46282 0.615291,0.83137 l 0.49648,0.6701 -0.120927,0.22454 c -0.150429,0.27934 -0.473945,0.53227 -0.679159,0.53101 -0.08536,-6e-4 -0.268854,-0.0971 -0.407767,-0.21465 z m -1.382306,-1.23038 -0.397308,-0.41375 v -0.94103 c 0,-0.51757 0.02452,-0.94104 0.05451,-0.94104 0.08338,0 0.804714,0.47959 0.904812,0.60157 0.0694,0.0846 0.07931,0.27053 0.04611,0.86594 -0.04979,0.89292 -0.09539,1.24207 -0.162201,1.24207 -0.02674,0 -0.227406,-0.18619 -0.445926,-0.41376 z m 2.257199,-0.86298 c -0.21759,-0.31189 -0.511948,-0.68067 -0.654127,-0.81952 -0.25,-0.24412 -0.258471,-0.26632 -0.257387,-0.6748 0.0022,-0.82159 0.319112,-1.8084 0.598062,-1.86212 0.100185,-0.0193 0.107784,0.0117 0.06433,0.25733 -0.0271,0.15358 -0.04958,0.52605 -0.04995,0.82774 -5.9e-4,0.46877 0.02403,0.59539 0.169314,0.87093 0.487955,0.92553 0.573746,1.12571 0.623348,1.45457 0.103337,0.68514 0.01543,0.67549 -0.493584,-0.0542 z m -8.282582,0.0344 c -0.141677,-0.59031 -0.429652,-1.1624 -0.79588,-1.58104 -0.310091,-0.35449 -0.339138,-0.43242 -0.183433,-0.49217 0.327093,-0.12552 2.671728,0.0461 2.995236,0.21923 0.126217,0.0676 0.09839,0.1096 -0.465427,0.7037 -0.329819,0.34753 -0.759343,0.85203 -0.954498,1.12112 -0.195154,0.26909 -0.383857,0.49087 -0.419339,0.49284 -0.03548,0.002 -0.114974,-0.20668 -0.176659,-0.46368 z m 4.592288,-0.77371 c -0.120289,-0.1508 -0.346239,-0.41142 -0.502115,-0.57916 -0.396474,-0.42665 -0.34573,-0.52401 0.255412,-0.49005 0.316183,0.0179 0.480656,0.0568 0.531485,0.12614 0.08137,0.11077 0.06582,1.21726 -0.0171,1.21726 -0.02694,0 -0.147392,-0.12338 -0.267679,-0.27419 z m 1.838984,-1.01007 c -0.03371,-0.0322 -0.22096,-0.14466 -0.416115,-0.24998 -0.344858,-0.18611 -0.354277,-0.1985 -0.335325,-0.44149 0.02842,-0.36445 0.410426,-1.44313 0.664382,-1.87606 0.292943,-0.49939 0.97453,-1.17439 1.415788,-1.40211 l 0.357796,-0.18465 0.656494,0.4982 c 0.834923,0.63359 1.492631,1.35522 1.357941,1.48991 -0.01802,0.018 -0.175151,-0.0329 -0.349176,-0.11322 -0.267881,-0.12356 -0.425259,-0.14593 -1.026063,-0.14593 -0.60975,0 -0.747372,0.0202 -0.977595,0.14328 -0.541796,0.28972 -0.869425,0.88901 -1.003211,1.83505 -0.05614,0.39699 -0.09424,0.50544 -0.177554,0.50544 -0.05834,0 -0.133653,-0.0263 -0.167362,-0.0585 z m 4.817901,-1.23721 c -0.327899,-0.30581 -0.347247,-0.34153 -0.361749,-0.66781 -0.0089,-0.20076 -0.07795,-0.47411 -0.165298,-0.65455 -0.147726,-0.30515 -0.977608,-1.20258 -1.414798,-1.52994 -0.271275,-0.20313 -0.209752,-0.31258 0.08066,-0.14349 1.144268,0.66621 2.302426,1.89672 2.491339,2.64696 0.06732,0.26732 0.06128,0.31587 -0.06049,0.48688 -0.07439,0.10447 -0.155051,0.18884 -0.179245,0.18749 -0.0242,-10e-4 -0.199885,-0.14785 -0.390421,-0.32554 z m -2.250253,-0.39236 c -0.329695,-0.0739 -0.361045,-0.18284 -0.05259,-0.18284 0.264866,0 0.552566,0.0999 0.552566,0.19195 0,0.0775 -0.123199,0.0753 -0.499982,-0.009 z"
       id="path4585"
       inkscape:connector-curvature="0" />
    <flowRoot
       xml:space="preserve"
       id="flowRoot4587"
       style="font-style:normal;font-weight:normal;font-size:40px;line-height:1.25;font-family:sans-serif;letter-spacing:0px;word-spacing:0px;fill:#000000;fill-opacity:1;stroke:none"
       transform="matrix(0.01908781,0,0,0.01908781,8.0360178,269.55827)"><flowRegion
         id="flowRegion4589"><rect
           id="rect4591"
           width="45.059288"
           height="62.224731"
           x="178.09148"
           y="869.11353" /></flowRegion><flowPara
         id="flowPara4593">festa</flowPara></flowRoot>    <text
       xml:space="preserve"
       style="font-style:normal;font-weight:normal;font-size:14.93571472px;line-height:1.25;font-family:sans-serif;letter-spacing:0px;word-spacing:0px;fill:#05e6ff;fill-opacity:1;stroke:none;stroke-width:0.37339285"
       x="35.405453"
       y="279.70798"
       id="text4597"><tspan
         sodipodi:role="line"
         id="tspan4595"
         x="35.405453"
         y="279.70798"
         style="font-style:normal;font-variant:normal;font-weight:normal;font-stretch:normal;font-family:Bungee;-inkscape-font-specification:Bungee;fill:#05e6ff;fill-opacity:1;stroke-width:0.37339285">festaria</tspan></text>
  </g>
</svg>
